-------------------------------------------------------------------------------
Test set: javacalc.TestJavaCalc
-------------------------------------------------------------------------------
Tests run: 4, Failures: 0, Errors: 0, Skipped: 0, Time elapsed: 0.136 s -- in javacalc.TestJavaCalc
